<svg xmlns="http://www.w3.org/2000/svg" width="450" height="155">
    <path fill="#FFF" fill-rule="evenodd" d="M437.701 77.895v32.308h-8.891V77.895h-12.298v-8.223H450v8.223h-12.299zm-41.916-8.222h8.891v40.529h-8.891V69.673zm-34.009 16.789h19.285v8.049h-19.285v15.691h-8.891V69.673h30.773v8.046h-21.882v8.743zm86.75 32.412l-13.008 35.097c0 .554-.448 1.003-1 1.003h-97.856c-.552 0-1-.449-1-1.003l13.008-35.097c0-.554.448-1.003 1-1.003h97.856c.552 0 1 .449 1 1.003zm-78.348 15.859c.516-.66.773-1.437.773-2.329 0-1.29-.532-2.308-1.595-3.058-1.064-.748-2.517-1.122-4.359-1.122h-7.67v16.72h7.932c1.937 0 3.47-.415 4.597-1.242 1.128-.828 1.691-1.958 1.691-3.392 0-1.099-.309-2.027-.929-2.782-.619-.756-1.468-1.238-2.549-1.446.89-.239 1.592-.688 2.109-1.349zm29.178-2.556a8.389 8.389 0 0 0-3.227-3.093c-1.367-.748-2.882-1.123-4.55-1.123-1.683 0-3.203.375-4.561 1.123a8.408 8.408 0 0 0-3.216 3.093c-.786 1.314-1.178 2.775-1.178 4.383 0 1.625.392 3.094 1.178 4.407a8.473 8.473 0 0 0 3.228 3.105c1.365.756 2.882 1.134 4.549 1.134 1.668 0 3.183-.378 4.55-1.134a8.442 8.442 0 0 0 3.227-3.117c.787-1.322 1.179-2.786 1.179-4.395 0-1.608-.392-3.069-1.179-4.383zm27.761-3.953h-4.454l-3.501 5.111-3.478-5.111h-4.383l5.573 8.169-5.978 8.551h4.406l3.86-5.566 3.929 5.566h4.502l-6.026-8.718 5.55-8.002zm-32.953 12.982a4.78 4.78 0 0 1-2.537.704 4.839 4.839 0 0 1-2.561-.716 5.365 5.365 0 0 1-1.882-1.935c-.469-.812-.702-1.712-.702-2.699 0-.972.23-1.863.691-2.675a5.137 5.137 0 0 1 1.881-1.923 4.964 4.964 0 0 1 2.573-.705 4.78 4.78 0 0 1 2.537.705 5.152 5.152 0 0 1 1.834 1.923c.452.812.679 1.703.679 2.675 0 .987-.227 1.891-.679 2.711a5.127 5.127 0 0 1-1.834 1.935zm-29.357.657h-3.716v-3.965h3.716c.888-.016 1.587.152 2.096.501.507.351.761.829.761 1.433 0 .637-.254 1.135-.761 1.493-.509.359-1.208.538-2.096.538zm0-6.903h-3.716v-3.655h3.716c.714-.015 1.273.135 1.679.454.405.319.607.765.607 1.337 0 .59-.202 1.048-.607 1.374-.406.326-.965.49-1.679.49zm-31.033-30.346c-1.81 1.912-3.982 3.436-6.524 4.573-2.541 1.137-5.351 1.708-8.429 1.708-3.081 0-5.88-.56-8.401-1.678-2.522-1.121-4.687-2.634-6.495-4.546-1.809-1.909-3.205-4.129-4.187-6.658a21.799 21.799 0 0 1-1.472-7.961v-.114c0-2.78.5-5.442 1.502-7.989 1-2.551 2.405-4.779 4.212-6.691 1.812-1.909 3.986-3.433 6.527-4.57 2.54-1.141 5.35-1.71 8.429-1.71 3.079 0 5.879.558 8.4 1.682 2.52 1.119 4.687 2.632 6.497 4.541 1.809 1.912 3.203 4.132 4.185 6.661.982 2.526 1.473 5.18 1.473 7.961.038.04.038.075 0 .115 0 2.776-.5 5.443-1.502 7.988-1.001 2.548-2.405 4.779-4.215 6.688zm.984-14.676c0-2.318-.396-4.489-1.185-6.515-.788-2.027-1.896-3.792-3.319-5.295a16.126 16.126 0 0 0-5.054-3.594c-1.943-.887-4.07-1.332-6.379-1.332-2.309 0-4.437.439-6.38 1.303-1.944.872-3.609 2.055-4.993 3.563-1.387 1.506-2.477 3.264-3.263 5.269-.791 2.01-1.185 4.168-1.185 6.486v.115c0 2.313.394 4.487 1.185 6.512.786 2.025 1.895 3.794 3.319 5.296a15.975 15.975 0 0 0 5.052 3.591c1.944.888 4.072 1.332 6.38 1.332 2.31 0 4.436-.433 6.379-1.302 1.944-.869 3.611-2.055 4.995-3.562 1.387-1.504 2.475-3.262 3.263-5.267.789-2.008 1.185-4.168 1.185-6.486v-.114zm-80.487-12.972v33.236h-4.447V69.673h4.273l25.462 32.48v-32.48h4.447v40.529h-3.639l-26.096-33.236zM206.724 96.51c.788 2.026 1.885 3.791 3.291 5.295a15.495 15.495 0 0 0 4.966 3.561c1.905.869 3.975 1.302 6.206 1.302 2.771 0 5.158-.508 7.16-1.531 2.002-1.025 3.965-2.461 5.888-4.315l3.002 2.952a28.404 28.404 0 0 1-3.262 2.924 20.224 20.224 0 0 1-3.665 2.232 21.024 21.024 0 0 1-4.214 1.445c-1.502.347-3.177.52-5.025.52-2.925 0-5.619-.538-8.083-1.622-2.463-1.08-4.601-2.553-6.409-4.426-1.809-1.872-3.223-4.083-4.244-6.629-1.02-2.551-1.529-5.269-1.529-8.166v-.114c0-2.856.509-5.562 1.529-8.107 1.021-2.548 2.435-4.776 4.244-6.688 1.808-1.908 3.964-3.414 6.468-4.512 2.5-1.1 5.233-1.653 8.198-1.653 1.848 0 3.512.154 4.993.462a21.23 21.23 0 0 1 4.131 1.302 19.018 19.018 0 0 1 3.52 2.026 30.984 30.984 0 0 1 3.12 2.638l-3.12 3.358c-1.731-1.622-3.588-2.954-5.57-3.997-1.983-1.04-4.361-1.563-7.132-1.563-2.231 0-4.301.426-6.206 1.276a15.081 15.081 0 0 0-4.966 3.53c-1.406 1.507-2.503 3.272-3.291 5.297-.789 2.028-1.183 4.199-1.183 6.515v.116c0 2.353.394 4.544 1.183 6.572zm-47.431-26.837h29.214v4.11h-24.654v13.956h22.057v4.11h-22.057v14.242h24.944v4.111h-29.504V69.673zm-26.79 40.53h-4.562V73.899h-13.567v-4.226h31.696v4.226h-13.567v36.304zm-64.721-42.77l9.242 5.352v69.031l-16.96 9.821V62.966l31.348-18.149 16.962 9.819-31.349 18.149-9.243-5.352zm23.63-44.413l16.961 9.819v21.796l-16.961-9.819V23.02zM54.187 45.057c-12.139 0-21.98-9.865-21.98-22.036C32.207 10.849 42.048.98 54.187.98c12.138 0 21.979 9.869 21.979 22.041 0 12.171-9.841 22.036-21.979 22.036zm-5.878 17.908v88.672l-16.959-9.821V72.785h-.001L0 54.636l16.96-9.819 31.348 18.149.001-.001zM0 32.839l16.959-9.819v21.796L0 54.635V32.839z"/>
</svg>
